{
  "project_info": {
    "project_number": "355259471100",
    "firebase_url": "https://e-metafer-android.firebaseio.com",
    "project_id": "e-metafer-android",
    "storage_bucket": "e-metafer-android.appspot.com"
  },
  "client": [
    {
      "client_info": {
        "mobilesdk_app_id": "1:355259471100:android:aef4eba2080681f7bbb379",
        "android_client_info": {
          "package_name": "com.purposecodes.emetwafar"
        }
      },
      "oauth_client": [
        {
          "client_id": "355259471100-4aoesjsemhl7f46bgt575421ibcbeibj.apps.googleusercontent.com",
          "client_type": 1,
          "android_info": {
            "package_name": "com.purposecodes.emetwafar",
            "certificate_hash": "b39843a43b9137d3d102dee3e92cf4d78b33bcb2"
          }
        },
        {
          "client_id": "355259471100-8fajuo9a2oh4hok4hllm0fegtj1m0l46.apps.googleusercontent.com",
          "client_type": 1,
          "android_info": {
            "package_name": "com.purposecodes.emetwafar",
            "certificate_hash": "1a8c98b67cfe0914d0399a38322a49d972e80775"
          }
        },
        {
          "client_id": "355259471100-l82r16tdkcrsk9lng8sqe3drrj6desi0.apps.googleusercontent.com",
          "client_type": 3
        }
      ],
      "api_key": [
        {
          "current_key": "AIzaSyAbb9rFVZI_VKtqCvAgm3bW-8r-cd-cLLg"
        }
      ],
      "services": {
        "appinvite_service": {
          "other_platform_oauth_client": [
            {
              "client_id": "355259471100-l82r16tdkcrsk9lng8sqe3drrj6desi0.apps.googleusercontent.com",
              "client_type": 3
            }
          ]
        }
      }
    }
  ],
  "configuration_version": "1"
}